<svg xmlns="http://www.w3.org/2000/svg" width="36" height="36" viewBox="0 0 36 36">
    <g fill="none" fill-rule="evenodd">
        <g fill="#000" fill-rule="nonzero">
            <path d="M36 33c0 1.598-1.249 2.904-2.824 2.995L32.97 36H3C1.402 36 .096 34.751.005 33.176L0 33V3l.005-.176C.093 1.307 1.307.093 2.824.005L3 0h30c1.598 0 2.904 1.249 2.995 2.824L36 3v30zM13.919 20.28H12.51v7.54h-1.362v-7.54h-1.41v-1.281h4.182v1.281h-.002zm8.092 2.581v3.61c0 .805-.3 1.43-1.104 1.43-.444 0-.811-.162-1.15-.581v.499h-1.22v-8.82h1.22v2.84c.274-.333.643-.608 1.076-.608.886 0 1.178.748 1.178 1.63zm-1.245.074c0-.219-.04-.386-.129-.5-.147-.193-.419-.214-.63-.106l-.25.198v4.054l.284.23c.198.099.486.107.62-.067.069-.092.104-.242.104-.449v-3.36h.001zm-3.52-8.788c.343 0 .53-.275.53-.647v-3.178c0-.383-.166-.651-.556-.651-.355 0-.53.277-.53.65V13.5c.002.36.206.646.555.646zm-1.1 12.104c-.149.185-.476.488-.713.488-.258 0-.322-.177-.322-.438v-4.987h-1.208v5.439c0 1.32.896 1.327 1.547.953.24-.137.473-.34.696-.604v.718h1.21v-6.506h-1.21v4.938zm4.005-12.11c0 .675.206 1.219.888 1.219.384 0 .916-.2 1.468-.853v.754h1.271V8.43h-1.27v5.186c-.156.193-.5.511-.747.511-.273 0-.34-.186-.34-.46V8.43h-1.27v5.71zm-4.765-3.932v3.35c0 1.204.628 1.83 1.86 1.83 1.023 0 1.827-.684 1.827-1.83v-3.35c0-1.07-.797-1.836-1.828-1.836-1.117 0-1.86.74-1.86 1.836zM10.652 6l1.702 5.505v3.756h1.43v-3.756L15.45 6h-1.454l-.916 3.702L12.093 6h-1.44zm17.346 17.5c-.021-4.466-.348-6.174-3.166-6.367-2.601-.177-11.066-.177-13.664 0-2.814.192-3.147 1.893-3.167 6.367.021 4.468.35 6.176 3.167 6.368 2.598.177 11.063.177 13.663 0 2.816-.194 3.146-1.893 3.167-6.367zm-1.516-.438v1.656h-2.314v1.227c0 .488.041.911.529.911.51 0 .54-.344.54-.91v-.452h1.245v.489c0 1.254-.538 2.013-1.813 2.013-1.156 0-1.746-.841-1.746-2.013v-2.92c0-1.13.746-1.913 1.838-1.913 1.16-.002 1.72.737 1.72 1.913zm-1.245-.012c0-.439-.093-.762-.53-.762-.448 0-.538.316-.538.762v.659h1.067v-.659z"/>
        </g>
    </g>
</svg>
