<svg
  version="1.0"
  xmlns="http://www.w3.org/2000/svg"
  width="48"
  height="48"
  viewBox="0 0 181 185"
  preserveAspectRatio="xMidYMid meet"
>
  <g transform="translate(0,185) scale(0.1,-0.1)" fill="#000000" stroke="none">
    <path
      d="M397 1834 c-1 -1 -72 -5 -157 -8 -85 -4 -155 -8 -155 -9 -1 -1 -9
-15 -20 -31 -19 -31 -20 -40 -29 -216 -18 -321 -25 -571 -18 -584 3 -5 7 -66
8 -135 7 -291 14 -498 19 -531 3 -19 7 -85 9 -145 3 -61 8 -118 11 -128 8 -19
37 -22 66 -7 14 8 19 7 19 -2 0 -9 3 -10 8 -2 22 33 1087 49 1332 19 19 -2 78
-9 130 -16 113 -14 131 -14 142 3 10 17 -2 503 -16 593 -11 69 -25 207 -31
295 -4 47 -9 101 -12 120 -2 19 -7 145 -9 280 -6 355 -8 396 -26 413 -9 9 -13
26 -11 40 3 14 -1 28 -7 32 -7 4 -94 10 -194 13 -174 5 -1054 10 -1059 6z
m865 -60 c181 -8 335 -17 343 -20 17 -7 17 -7 20 -289 3 -182 12 -431 19 -495
2 -19 7 -64 10 -100 4 -36 11 -90 16 -120 9 -55 13 -121 26 -442 8 -202 9
-199 -92 -193 -98 7 -145 15 -171 32 -12 8 -28 15 -35 17 -36 5 -137 53 -168
79 -46 39 -59 64 -60 110 0 72 50 143 238 337 72 74 132 141 132 148 0 6 3 12
8 12 15 0 51 86 57 135 5 42 1 58 -22 100 -56 100 -136 120 -257 65 -66 -29
-158 -86 -164 -102 -2 -4 -8 -8 -13 -8 -10 0 -57 -34 -133 -97 -21 -18 -42
-31 -46 -28 -3 2 -17 -6 -31 -19 -13 -12 -100 -73 -194 -136 -93 -63 -171
-118 -173 -122 -2 -4 -8 -8 -13 -8 -6 0 -34 -18 -63 -40 -57 -43 -106 -53
-106 -22 0 27 37 91 98 167 62 77 390 406 462 463 122 97 197 203 207 291 4
40 1 55 -21 90 -15 23 -48 56 -74 72 -42 28 -53 30 -107 26 -71 -6 -141 -28
-287 -91 -59 -25 -111 -46 -117 -46 -5 0 -11 -4 -13 -9 -3 -10 -58 -24 -58
-15 0 11 36 59 75 97 49 51 113 95 180 126 28 13 60 29 73 35 32 17 81 17 454
0z m-717 -3 c-6 -4 -41 -32 -80 -61 -87 -66 -175 -154 -175 -174 0 -9 -4 -16
-9 -16 -6 0 -24 -30 -42 -66 -28 -60 -30 -69 -18 -92 22 -40 54 -55 103 -49
38 6 131 42 146 57 3 3 16 11 29 18 120 68 120 68 181 97 171 82 302 117 330
89 19 -19 14 -72 -11 -122 -17 -33 -119 -142 -336 -360 -172 -172 -313 -317
-313 -322 0 -5 -4 -10 -8 -12 -16 -6 -91 -114 -122 -176 -39 -76 -38 -138 1
-175 35 -33 141 -30 231 7 60 25 187 97 220 125 7 7 36 28 64 49 28 20 66 49
85 64 19 15 66 50 104 78 39 28 84 62 100 75 35 27 124 95 191 145 26 19 72
47 102 62 73 37 152 37 152 1 0 -16 -90 -133 -102 -133 -5 0 -8 -5 -8 -11 0
-6 -55 -65 -123 -132 -131 -130 -188 -200 -230 -285 -27 -54 -36 -112 -17
-112 6 0 10 -6 10 -13 0 -22 149 -167 172 -167 13 0 9 -17 -4 -17 -7 0 -143
-3 -303 -7 -315 -7 -427 -12 -550 -27 -101 -12 -172 -12 -180 0 -5 10 -7 23
-21 201 -7 99 -9 125 -20 385 -13 299 -10 895 5 1020 l6 50 75 6 c124 9 375
10 365 0z"
    />
  </g>
</svg>
